-1.968199991254619696e-01	-1.606783265682660000e-01	-1.968199991254624970e-01
-4.098370624094754833e-01	-4.133386957723795274e-01	-4.098370624094277992e-01
2.144338662062248435e-01	2.327589188890845928e-01	2.144338662062693912e-01
3.530878108873405363e-01	3.092959427867116862e-01	3.530878108873253818e-01
3.186410210271877208e-01	5.084531392098706748e-01	3.186410210271528043e-01
-7.393248923196402700e+00	7.887757238532189241e+00	-7.393248923196276579e+00
7.327598913602979103e+00	-7.772542117695471653e+00	7.327598913602929365e+00
4.100329559430845316e-01	-4.055143842121856218e-02	4.100329559430896942e-01
4.548282853490963618e-01	5.584193044949252449e-02	4.548282853490442923e-01
3.968618211033349752e+01	3.731865937626405128e+01	3.968618211033317067e+01
-3.975623719178871340e+01	-3.740526946972044442e+01	-3.975623719178842208e+01
2.172410869532725441e-01	-4.870726431254492339e-01	2.172410869532902244e-01
3.128836972931700711e+00	-2.580425281743388144e+00	3.128836972931667848e+00
-9.163224468283357282e+02	1.010590666144421562e+03	-9.163224468283372062e+02
9.162587354865518137e+02	-1.010522265597929845e+03	9.162587354865532916e+02
-3.020508706750043793e+00	2.470178240773248657e+00	-3.020508706750038908e+00
